ISSS624 - Take-home_Ex2
…
Joining with `by = join_by(ORIGIN_PT_CODE)`

Warning in left_join(unique_weekdayAM, busstop_hex): Detected an unexpected many-to-many relationship between `x` and `y`.
ℹ Row 113425 of `x` matches multiple rows in `y`.
ℹ Row 3054 of `y` matches multiple rows in `x`.
ℹ If a many-to-many relationship is expected, set `relationship =
  "many-to-many"` to silence this warning.

unique(combn_des_weekdayAM)

# A tibble: 242,497 × 4
# Groups:   ORIGIN_BS [5,029]
   ORIGIN_BS DESTIN_BS TRIPS ORIGIN_GRID
   <chr>     <chr>     <dbl>       <int>
 1 01012     01112       290        1474
 2 01012     01113       118        1474
 3 01012     01121        77        1474
 4 01012     01211       118        1474
 5 01012     01311       165        1474
 6 01012     07371        14        1474
 7 01012     60011        30        1474
 8 01012     60021        16        1474
 9 01012     60031        35        1474
10 01012     60159        26        1474
# ℹ 242,487 more rows
…
