ISSS624 - Take home Exercise 2
…
Joining with `by = join_by(ORIGIN_PT_CODE)`

Warning in left_join(unique_weekdayPM, busstop_hex): Detected an unexpected many-to-many relationship between `x` and `y`.
ℹ Row 130737 of `x` matches multiple rows in `y`.
ℹ Row 3054 of `y` matches multiple rows in `x`.
ℹ If a many-to-many relationship is expected, set `relationship =
  "many-to-many"` to silence this warning.

unique(combn_des_weekdayPM)

# A tibble: 264,319 × 4
# Groups:   ORIGIN_BS [5,039]
   ORIGIN_BS DESTIN_BS TRIPS ORIGIN_GRID
   <chr>     <chr>     <dbl>       <int>
 1 01012     01112       540        1474
 2 01012     01113       516        1474
 3 01012     01121       303        1474
 4 01012     01211       363        1474
 5 01012     01311       630        1474
 6 01012     01549         6        1474
 7 01012     01559         6        1474
 8 01012     04142         1        1474
 9 01012     07371        42        1474
10 01012     60011        48        1474
# ℹ 264,309 more rows
…
